; this file must be in UNICODE format
begin
background 32

camera_pos 700

background_offsetx 1100

playmusic "bgm/lfo_china2.ogg"

addEX 9001 17 -50 0 390 0

RunEX 9001 0 390 0
wait_complete

talkEX 900 64 66
wait_complete

end