; this file must be in UNICODE format
begin
background 42
playmusic "bgm/lfo_heart.ogg"

background_offsetx -200

;============== davis meet freeze ==================
camera_pos 0
add 9011 12 800 0 290
add 9003 5 600 0 280
add 9102 1 180 0 350
faceleft 9011

move 9102 550 330 
wait_complete

talkEX 726 0 6
wait_complete

talkEX 726 7 7
move 9011 1100 310
wait_complete
run 9003 1200 300
run 9102 1200 340
wait_complete
end


