; this file must be in UNICODE format
begin
background 0

background_offsetx 620

camera_pos 0

hide_titlepic
show_titlepic "stage4" "icefire"
wait_complete     

camera_pos 0
;add 9003 3 370 0 390
add 9001 3333 470 0 375
playmusic "bgm/lfo_heart.ogg"

fadeout_titlepic 0 3
wait_complete


;============== arrive the island ==================


talk 750
wait_complete 
end


