// lfo init script for package
// pack version name
// major version id
// ACC_DB_bitflag
// STY_atd list
// enable_char 1, enable_char 2, ...
遊戲包 v1.0
1
1
1,2,3,4,5,101,102,103,501,502,503,504,505,506,507,508,563,564
3,5,51,52

遊戲包 v1.0 雜誌
1
2
1,2,3,4,5,101,102,103,501,502,503,504,505,506,507,508,563,564
1,3,5,51,52

完全包 v1.0
1
3
1,2,3,4,5,101,102,103,501,502,503,504,505,506,507,508,563,564
1,3,4,5,51,52,53,54,55,64,71

遊戲包 v2.0
2
4
104,105,106,107,108,109,110,111,112,113,114,115,509,510,511,512
11,50,51,53

遊戲包 v2.0 雜誌
2
5
104,105,106,107,108,109,110,111,112,113,114,115,509,510,511,512
1,3,5,51,52

豪華包 v2.0
2
6
104,105,106,107,108,109,110,111,112,113,114,115,509,510,511,512
11,12,13,14,56,59,6,7

公測包 v1.0
2
0
104,105,106,107,108,109,110,111,112,113,114,115,509,510,511,512
2

遊戲包 v3.0
3
7
116,117,118,119,120,121,122,123,124,125,513,514
54,13,56,196

豪華包 v3.0
3
8
116,117,118,119,120,121,122,123,124,125,513,514
4,5,12,14,16,9,55,57,19,196,197

設定畫集
3
9
116,117,118,119,120,121,122,123,124,125,513,514
5,11,12,174

遊戲包 v4.0
4
10
126,127,128,129,130,131
54,13,56,260

豪華包 v4.0
4
11
126,127,128,129,130,131
3,7,54,51,64,50,13,52,194,260,261

v4.5 炎冰包
4.5
12
515,518,519
197,19,12,11

v4.5 疾風包
4.5
13
517,518,519
16,19,12,13

v4.5 迅雷包
4.5
14
516,518,519
4,16,13,14
                                
豪華包 v5.0                     
5                               
15                              
522,521,520,132,133,134,135,136,137
5,196,6,9,197,71,55,59,194,54,74

v5.0 鬥志包
5
16
522,132,133,134,135,136,137
71,54,51,55

v5.0 怒火包
5
17
521,132,133,134,135,136,137
71,55,57,50

v5.0 殺氣包
5
18
520,132,133,134,135,136,137
54,51,57,50

迪倫外傳 v5.5
5.5
19
523,524,525
3,7,199,266

遊戲包 v6.0
6
21
138,139,140
2,51,262,9,16

豪華包 v6.0
6
20
138,139,140,526,527
2,4,262,17,16,11,260,261,194,59,50,56

魄力枝-A
6
23
1
2

魄力枝-B
6
24
1
2

遊戲包 v7.0 
7
26
141,142,143,530
2,71,7,4,174

v7.0 激鬥包
7
28
141,142,143,528
2,52,9,55,174

v7.0 狂戰包
7
27
141,142,143,529
2,50,6,260,174

豪華包 v7.0
7
25
141,142,143,528,529,530
2,5,71,6,9,196,53,55,199,195,74,174

v7.5 撒卡外傳
7.5
29
531,532
2,19,195,266,261

畫冊光之霸主
7.5
30
1
8,7,11,9,192

畫冊闇黑鬥神
7.5
31
1
15,16,19,17,18

遊戲包 v8.0
8.0
34
144,145,146
14,194,56,5

豪華包 v8.0
8.0
33
144,145,146,550,551
1,3,4,54,71,14,56,197,196,261,198

龍翼外傳 v8.5
8.5
35
533,534
5,11,12,17,274

遊戲包 v9.0
9.0
37
147,148,149,150,151
1,12,54,64,71,194,199,198,266,272,277

新手包 v9.0
9.0
36
147,148,149,150,151
3,4,6,197,261

黑日包 v9.0
9.0
38
147,148,149,150,151,535
6,13,14,19,282

甲賀包 v9.5
9.5
39
536,538
9,11,199,261,286

伊賀包 v9.5
9.5
40
537,538
12,50,174,199,285

Netvigator Ice v9.5
9.5
41
538
12,57,174,260

3G Fire v9.5
9.5
42
538
9,11,194,196

魄力枝-C
9.5
43
1
2

遊戲包 v10.0
10.0
44
152,153,154,155
5,7,74,260,272 

豪華包 v10.0
10.0
45
152,153,154,155,539,540,541
5,7,74,195,16,56,261,269,280,272,281

入魔包 v10.0
10.0
46
152,153,154,155,533,534,542
59,199,16,275

魔界外傳包 v10.5
10.5
47
543,544,545
17,13,198,270

魄力枝-D
10.5
48
1
2

魄力枝-E
10.5
49
1
2

新手包 v11.0
11.0
50
156,157
2,5,71,16,74,262

豪華包 v11.0
11.0
51
156,157,546
2,4,197,261,192,262,14,11,198,195

魔塔風雲 v11.5
11.5
52
1000,1001
2,57,19,50,274,287

神龍包 v12.0
12.0
53
158,159,160,161,162
2,269,266,274,282,285

宿敵包 v12.0
12.0
54
158,159,160,161,162
2,269,266,274,282,11,12,289,286,297

龍神外傳 v12.5
12.5
55
158,159,160,547,548,161,162
2,64,7,13,6,271

命運包 v13.0
13.0
56
163,164
2,272,273,277,280,281

對決包 v13.0
13.0
57
163,164
2,272,273,277,280,281,192,193,269,261

天魔外傳 v13.5
13.5
58
560,561,562
2,284,298,9,10

突變元能 v13.6
13.6
59
565,566
2,56,53,194,174

強者包 v14.0
14.0
60
166,167,168,169,170,171,172
2,194,5,17,266,370

力量解禁包 v14.0
14.0
61
166,167,168,169,170,171,172
2,8,10,16,18,266

經典珍藏包 v14.0
14.0
62
101,102,103,104,105,106,107,108,109,110,111,112,113,114,115,116,117,118,119,120,121,122,123,124,125,126,127,128,129,130,131,132,133,134,135,136,137,138,139,140,141,142,143,144,145,146,147,148,149,150,151,152,153,154,155,156,157,158,159,160,161,162,163,164,165,166,167,168,169,170,171,172,501,502,503,504,505,506,507,508,509,510,511,512,513,514,515,516,517,518,519,520,521,522,523,524,525,526,527,528,529,530,531,532,533,534,535,536,537,538,539,540,541,542,543,544,545,546,547,548,550,551,560,561,562,563,564,565,566
2,5,8,16,17,18