begin
background 11

background_offsetx 0

camera_follow 9004
playmusic "bgm/lfo_devil2.ogg"

add 9051 92 240 0 450      
add 9004  3333 340 0 430


background_offsetx 300
move 9008 290 380
move 9051 240 450      
move 9007 190 420
move 9002 390 420
move 9004 340 430
wait_complete

add 9901 3046 540 0 330
talkEX 1000 63 63
wait_complete


talkEX 1000 64 65
wait_complete


end