begin
background 8

background_offsetx 100

camera_follow 9004
playmusic "bgm/lfo_china2.ogg"


add 9008  3333 290 0 320
add 9007  92 190 0 360

faceleft 9008
talkEX 1000 8 8
wait_complete

faceright 9008
talkEX 1000 9 9
wait_complete

end