; this file must be in UNICODE format
begin
background 38
playmusic "bgm/lfo_bliss.ogg"

background_offsetx -800

add 9080 82 1700 0 400 
faceleft 9080 

add 9001 1 1450 0 400 

;============== on the way looking for fat worm ==================

camera_pos 1200
DoAction 9080 733
talkEX 1018 0 3
wait_complete
run 9001 2200 400
wait_complete

end
