; this file must be in UNICODE format
begin

;playmusic "bgm\lfo_devil2.ogg"
background 53
playsound "sfx\ElevatorStop.wav" 0 100 0
Addex 9000 11 400 0 320 1
Addex 9001 12 600 0 360 1
Addex 9002 5 800 0 340 1
Addex 9003 8 700 0 400 1
Addex 9004 6 350 0 380 1
Addex 9005 9 400 0 420 1
 
faceleft 9002
faceleft 9003
faceleft 9001

camera_pos 200

wait_time 3
end

