; this file must be in UNICODE format
begin
background 10
;playmusic "bgm/lfo_sorrow.ogg"
playmusic "bgm/lfo_heart.ogg"

add 9014 14 1150 0 300
faceleft 9014

add 9002 3333 650 0 480


camera_pos 620
move 9002 900 355
wait_complete
talkEX 510 0 0
wait_complete


talkEX 510 1 1
DoAction 9014 450
remove 9014
add 9114  14 1150 -100 355
faceleft 9114
wait_complete


end