~story file list
~mode spriteID filename
~mode: vs=0, story=10, mission=20
~spriteID: any=0, davis=1 and etc...

~~~~~ Pack 5 ~~~~~~~
0 0 story/pack5/VS_p5s3.sty

20 0   story/mission/mission_henry.sty
20 0   story/mission/mission_redmon.sty
20 0   story/mission/mission_jace.sty
20 266   story/mission/mission_henry.sty
20 266   story/mission/mission_redmon.sty
20 266   story/mission/mission_jace.sty

10 0   story/pack5/p5s1.sty
10 0   story/pack5/p5s2.sty
10 0   story/pack5/p5s3.sty
10 0   story/pack5/p5s4.sty
10 0   story/pack5/p5s5.sty
10 0   story/pack5/p5s6.sty
10 266   story/pack5/p5s1.sty
10 266   story/pack5/p5s2.sty
10 266   story/pack5/p5s3.sty
10 266   story/pack5/p5s4.sty
10 266   story/pack5/p5s5.sty
10 266   story/pack5/p5s6.sty
~~~~~ Pack 5.5 ~~~~~~~
20 0   story/mission/mission_deep.sty
20 0   story/mission/mission_dilun1.sty
20 0   story/mission/mission_dilun2.sty
20 266   story/mission/mission_deep.sty
20 266 story/mission/mission_dilun1.sty
20 266 story/mission/mission_dilun2_sp.sty