; this file must be in UNICODE format
begin

background 0

camera_pos 620

background 8
playmusic "BGM/lfo_lobby1_2.ogg"

addex 2 2 1000 0 400 0
addex 3 3 1100 0 400 0

faceleft 3
wait_complete
talkex 1000 33 33
wait_complete
doaction 2 900
doaction 3 900
talkex 1000 34 34
wait_complete

end