; this file must be in UNICODE format
begin
background 16

camera_pos 0


playmusic "bgm/lfo_normal.ogg"
wait_complete
add 9003 3 100 0 400

talkEX 502 51 51
wait_complete

move 9003 250 400
wait_complete


;============== Intro: Cutie starts game ==================

camera_pos 0 

talkEX 502 52 52
wait_complete

end


